;id;index;x;y;z;aruco_dict
0;14;0;0.0;0.14831589;0.0;10
1;14;1;0.067279994;0.14831589;0.0;10
2;14;2;0.067279994;0.0810359;0.0;10
3;14;3;0.0;0.0810359;0.0;10
4;15;0;0.080736;0.14831589;0.0;10
5;15;1;0.14801599;0.14831589;0.0;10
6;15;2;0.14801599;0.0810359;0.0;10
7;15;3;0.080736;0.0810359;0.0;10
8;16;0;0.161472;0.14831589;0.0;10
9;16;1;0.22875199;0.14831589;0.0;10
10;16;2;0.22875199;0.0810359;0.0;10
11;16;3;0.161472;0.0810359;0.0;10
12;17;0;0.0;0.067279994;0.0;10
13;17;1;0.067279994;0.067279994;0.0;10
14;17;2;0.067279994;0.0;0.0;10
15;17;3;0.0;0.0;0.0;10
16;18;0;0.080736;0.067279994;0.0;10
17;18;1;0.14801599;0.067279994;0.0;10
18;18;2;0.14801599;0.0;0.0;10
19;18;3;0.080736;0.0;0.0;10
20;19;0;0.161472;0.067279994;0.0;10
21;19;1;0.22875199;0.067279994;0.0;10
22;19;2;0.22875199;0.0;0.0;10
23;19;3;0.161472;0.0;0.0;10
